{
	"$schema": "http://json-schema.org/draft-04/schema#",
	"title": "Salesforce Credentials",
	"type": "object",
	"format": "table",
	"properties": {
		"loginname": {
			"title": "Login Name",
			"type": "string",
			"description": "Login name for Salesforce",
			"minLength": 1,
			"default": "",
			"propertyOrder": 10
		},
		"#password": {
			"title": "Password",
			"type": "string",
			"format": "password",
			"description": "Salesforce password",
			"minLength": 1,"propertyOrder":20,
			"default": ""
		},
		"#securitytoken": {
			"title": "Security token",
			"type": "string",
			"description": "Salesforce security token",
			"minLength": 1,
			"default": "",
			"format": "password",
			"propertyOrder": 30
		},
		"sandbox": {
			"title": "Sandbox",
			"type": "boolean",
			"format": "checkbox",
			"description": "Download records from sandbox instead of the production environment.",
			"propertyOrder": 40
		}
	},
	"required": [
		"loginname",
		"#password",
		"#securitytoken",
		"sandbox"
	]
}